{
    "_comment": "valid record id is given",
    "request": {
        "recordId": "1",
        "transactionType": "fxTransaction"
    },
    "response": [
        {
            "rejectMessage": "OrderQty mismatch in Strategy Book",
            "index": 1
        },
        {
            "rejectMessage": "OrderQty mismatch",
            "index": 2
        }
    ]
}