{
  "BusinessDateTimeUTC": "2019-01-11T05:00:00.0000000Z",
  "TransactionDateTimeUTC": "2019-01-11T05:00:00.0000000Z",
  "SettleDate": "2019-01-17T05:00:00Z",
  "TradeDate": "2019-01-11T05:00:00Z",
  "OrderCreatedDate": "2019-01-11T21:04:25.1847017Z",
  "Allocations": [
    {
      "BaseCurrencySecurityId": 155,
      "BaseToLocalFxRate": 1,
      "BookTypeId": 2,
      "CommissionCharges": [],
      "CustodianCounterpartyAccountId": 8,
      "ExecQuantity": 3000,
      "ExecutingBrokerCounterpartyId": 9,
      "FeeCharges": [],
      "IsFinalized": false,
      "NetAmount": 337500,
      "PortfolioId": 5,
      "PositionTags": null,
      "PrincipalAmount": 337500,
      "Quantity": 3000,
      "RouteId": 7976,
      "RouteName": "MANUAL",
      "SettleAmount": 337500,
      "SettleCurrencySecurityId": 155,
      "SettlePrice": 112.5,
      "SettleToBaseFXRate": 1,
      "SettleToLocalFXRate": 1,
      "SettleToSystemFXRate": 1,
			"AccruedInterest": 1500
    },
    {
      "BaseCurrencySecurityId": 155,
      "BaseToLocalFxRate": 1,
      "BookTypeId": 3,
      "CommissionCharges": [],
      "ExecQuantity": 3000,
      "ExecutingBrokerCounterpartyId": 9,
      "FeeCharges": [],
      "IsFinalized": false,
      "NetAmount": 337500,
      "PortfolioId": 5,
      "PositionTags": [
        {
          "IndexAttributeId": 4,
          "IndexAttributeValueId": 3
        }
      ],
      "PrincipalAmount": 337500,
      "Quantity": 3000,
      "RouteId": 7976,
      "RouteName": "MANUAL",
      "SettleAmount": 337500,
      "SettleCurrencySecurityId": 155,
      "SettlePrice": 112.5,
      "SettleToBaseFXRate": 1,
      "SettleToLocalFXRate": 1,
      "SettleToSystemFXRate": 1,
			"AccruedInterest": 1500
    },
    {
      "BaseCurrencySecurityId": 155,
      "BaseToLocalFxRate": 1,
      "BookTypeId": 2,
      "CommissionCharges": [],
      "CustodianCounterpartyAccountId": 8,
      "ExecQuantity": 2000,
      "ExecutingBrokerCounterpartyId": 12,
      "FeeCharges": [],
      "IsFinalized": false,
      "NetAmount": 180000,
      "PortfolioId": 5,
      "PositionTags": null,
      "PrincipalAmount": 180000,
      "Quantity": 2000,
      "RouteId": 7977,
      "RouteName": "MANUAL",
      "SettleAmount": 180000,
      "SettleCurrencySecurityId": 155,
      "SettlePrice": 90,
      "SettleToBaseFXRate": 1,
      "SettleToLocalFXRate": 1,
      "SettleToSystemFXRate": 1,
			"AccruedInterest": 750
    },
    {
      "BaseCurrencySecurityId": 155,
      "BaseToLocalFxRate": 1,
      "BookTypeId": 3,
      "CommissionCharges": [],
      "ExecQuantity": 2000,
      "ExecutingBrokerCounterpartyId": 12,
      "FeeCharges": [],
      "IsFinalized": false,
      "NetAmount": 180000,
      "PortfolioId": 5,
      "PositionTags": [
        {
          "IndexAttributeId": 4,
          "IndexAttributeValueId": 3
        }
      ],
      "PrincipalAmount": 180000,
      "Quantity": 2000,
      "RouteId": 7977,
      "RouteName": "MANUAL",
      "SettleAmount": 180000,
      "SettleCurrencySecurityId": 155,
      "SettlePrice": 90,
      "SettleToBaseFXRate": 1,
      "SettleToLocalFXRate": 1,
      "SettleToSystemFXRate": 1,
			"AccruedInterest": 750
    }
  ],
  "EventTypeId": 3,
  "LocalCurrencySecurityId": 155,
  "OrderQuantity": 5000,
  "SecurityId": 198,
  "SecurityTemplateId": 1,
  "SequenceNumber": 799,
  "SourceSystemName": "IMS-TRADING",
  "SourceSystemReference": "8721",
  "SystemCurrencySecurityId": 155,
  "SystemToLocalFXRate": 1,
  "TransactionTimeZoneId": 15,
  "UserTimeZoneId": 1
}
