{
  "Allocations": [
    {
      "BaseCurrencySecurityId": 155,
      "BaseToLocalFxRate": 1,
      "BookTypeId": 2,
      "CustodianCounterpartyAccountId": 8,
      "ExecutingBrokerCounterpartyId": 12,
      "NetAmount": 77500,
      "PortfolioId": 5,
      "PositionStateId": 30,
      "PositionTags": null,
      "PrincipalAmount": 77500,
      "Quantity": 500,
      "SettleAmount": 77500,
      "SettleCurrencySecurityId": 155,
      "SettlePrice": 155,
      "SettleToBaseFXRate": 1,
      "SettleToLocalFXRate": 1,
      "SettleToSystemFXRate": 1,
      "AccruedInterest": 1500
    },
    {
      "BaseCurrencySecurityId": 155,
      "BaseToLocalFxRate": 1,
      "BookTypeId": 3,
      "ExecutingBrokerCounterpartyId": 12,
      "NetAmount": 77500,
      "PortfolioId": 5,
      "PositionStateId": 30,
      "PositionTags": [{ "IndexAttributeId": 4, "IndexAttributeValueId": 3 }],
      "PrincipalAmount": 77500,
      "Quantity": 500,
      "SettleAmount": 77500,
      "SettleCurrencySecurityId": 155,
      "SettlePrice": 155,
      "SettleToBaseFXRate": 1,
      "SettleToLocalFXRate": 1,
      "SettleToSystemFXRate": 1,
      "AccruedInterest": 1500
    },
    {
      "BaseCurrencySecurityId": 155,
      "BaseToLocalFxRate": 1,
      "BookTypeId": 1,
      "ExecutingBrokerCounterpartyId": 12,
      "NetAmount": 77500,
      "PortfolioId": 5,
      "PositionStateId": 30,
      "PositionTags": null,
      "PrincipalAmount": 77500,
      "Quantity": 500,
      "SettleAmount": 77500,
      "SettleCurrencySecurityId": 155,
      "SettlePrice": 155,
      "SettleToBaseFXRate": 1,
      "SettleToLocalFXRate": 1,
      "SettleToSystemFXRate": 1,
      "AccruedInterest": 1500
    }
  ],
  "BusinessDateTimeUTC": "2019-01-09T05:00:00.0000000Z",
  "EventTypeId": 3,
  "LocalCurrencySecurityId": 155,
  "OrderCreatedDate": "2019-01-10T01:12:25.5883250Z",
  "OrderQuantity": 500,
  "SecurityId": 212,
  "SecurityTemplateId": 1,
  "SequenceNumber": 758,
  "SettleDate": "2019-01-11T05:00:00Z",
  "SourceSystemName": "IMS-TRADING",
  "SourceSystemReference": "9999",
  "SystemCurrencySecurityId": 155,
  "SystemToLocalFXRate": 1,
  "TradeDate": "2019-01-09T05:00:00Z",
  "TransactionDateTimeUTC": "2019-01-09T05:00:00.0000000Z",
  "TransactionTimeZoneId": 15
}
