{
    "Allocations": [
        {
            "BaseCurrencySecurityId": 155,
            "BaseToLocalFxRate": 1,
            "BookTypeId": 2,
            "CustodianCounterpartyAccountId": 8,
            "ExecutingBrokerCounterpartyId": 12,
            "PortfolioId": 5,
            "PositionStateId": 20,
            "PositionTags": null,
            "Quantity": 2000,
						"AccruedInterest":500
        },
        {
            "BaseCurrencySecurityId": 155,
            "BaseToLocalFxRate": 1,
            "BookTypeId": 3,
            "ExecutingBrokerCounterpartyId": 12,
            "PortfolioId": 5,
            "PositionStateId": 20,
            "PositionTags": [
                {
                    "IndexAttributeId": 4,
                    "IndexAttributeValueId": 3
                }
            ],
            "Quantity": 2000,
						"AccruedInterest":500
        },
        {
            "BaseCurrencySecurityId": 155,
            "BaseToLocalFxRate": 1,
            "BookTypeId": 2,
            "CustodianCounterpartyAccountId": 8,
            "ExecutingBrokerCounterpartyId": 9,
            "PortfolioId": 5,
            "PositionStateId": 20,
            "PositionTags": null,
            "Quantity": 3000,
						"AccruedInterest": 500
        },
        {
            "BaseCurrencySecurityId": 155,
            "BaseToLocalFxRate": 1,
            "BookTypeId": 3,
            "ExecutingBrokerCounterpartyId": 9,
            "PortfolioId": 5,
            "PositionStateId": 20,
            "PositionTags": [
                {
                    "IndexAttributeId": 4,
                    "IndexAttributeValueId": 3
                }
            ],
            "Quantity": 3000,
						"AccruedInterest": 500
        },
        {
            "BaseCurrencySecurityId": 155,
            "BaseToLocalFxRate": 1,
            "BookTypeId": 1,
            "ExecutingBrokerCounterpartyId": 12,
            "PortfolioId": 5,
            "PositionStateId": 20,
            "PositionTags": null,
            "Quantity": 2000,
						"AccruedInterest":500
        },
        {
            "BaseCurrencySecurityId": 155,
            "BaseToLocalFxRate": 1,
            "BookTypeId": 1,
            "ExecutingBrokerCounterpartyId": 9,
            "PortfolioId": 5,
            "PositionStateId": 20,
            "PositionTags": null,
            "Quantity": 3000,
						"AccruedInterest": 500
        }
    ],
    "BusinessDateTimeUTC": "2019-01-11T05:00:00.0000000Z",
    "EventTypeId": 3,
    "LocalCurrencySecurityId": 155,
    "OrderCreatedDate": "2019-01-11T21:04:25.1847017Z",
    "OrderQuantity": 5000,
    "SecurityId": 198,
    "SecurityTemplateId": 1,
    "SequenceNumber": 792,
    "SettleDate": "2019-01-16T05:00:00Z",
    "SourceSystemName": "IMS-TRADING",
    "SourceSystemReference": "8721",
    "SystemCurrencySecurityId": 155,
    "SystemToLocalFXRate": 1,
    "TradeDate": "2019-01-11T05:00:00Z",
    "TransactionDateTimeUTC": "2019-01-11T05:00:00.0000000Z",
    "TransactionTimeZoneId": 15
}
