{
   "/api/securitymaster/v1/security?securityId=1000,155": "/SecurityId_1000_155",
   "/api/securitymaster/v1/security?securityId=1000": "/SecurityId_1000",
   "/api/securitymaster/v1/security?securityId=155": "/SecurityId_155",
   "/api/referencedata/v1/GetTimeZoneById?timeZoneId=1": "/TimeZone_1",
   "/api/referencedata/v1/GetTimeZoneById?timeZoneId=12": "/TimeZone_12",
   "/api/trading/v1/Orders?orderIds=13679": "/Order_13679",
   "/api/securitymaster/v1/Templates/GetEventTypesForTemplate?templateId=1&isTradingEvent=true": "/GetEventTypesForTemplate_1",
   "/api/referencedata/v1/Portfolio/21": "/Portfolio_21",
   "/api/coredata/v2/graphql?query={custodianAccounts(ids:[10]){id,name}}": "/GraphQL_CustodianCounterParty"
}